{
    "mapSettings": {
        "mapTypeId": "roadmap",
        "scaleControl": false,
        "zoomControl": true,
        "fullscreenControl": false,
        "disableDefaultUI": true,
        "zoom": 15,
        "center":{
            "latitude": 25.263056,
            "longitude": 55.297222
        },
        "scrollwheel": false,
        "customSettings": {
            "centerLocalized": {
                "AE": {
                    "latitude": 25.263056,
                    "longitude": 55.297222
                }
            },
            "setCenterBasedOnLocale": true,
            "markerIconSettings": {
                "iconPath": "/images/gmap/storeMarker.png",
                "width": 95,
                "height": 100,
                "bottomWhitespace": 20,
                "leftWhitespace": 45
            }
        }
    },
    "staticmapSettings": {
        "baseUrl": "https://maps.googleapis.com/maps/api/staticmap?",
        "markerIconSettings": {
            "iconPath": "/images/source-icons/map-pin-small.png"
        },
        "responsive": {
            "mobile": {
                "size": {
                    "width": 375,
                    "height": 302
                }
            },
            "desktop": {
                "size": {
                    "width": 760,
                    "height": 200
                }
            }
        },
        "scale": 2,
        "zoom": 15
    },
    "mapping": {
        "componentForm" : {
            "street_number": "short_name",
            "route": "long_name",
            "locality": "long_name",
            "premise": "long_name",
            "political": "long_name",
            "sublocality": "long_name",
            "sublocality_level_1": "long_name",
            "administrative_area_level_1": "short_name",
            "administrative_area_level_2": "short_name",
            "neighborhood": "long_name",
            "countryLong": "long_name",
            "country": "short_name",
            "postal_code": "short_name"
        },
        "siteAddressFormFieldsMapping" : {
            "AE" : {
                "country": "country",
                "locality": "area",
                "administrative_area_level_1": "city",
                "neighborhood": "area",
                "premise": "address1",
                "route": "address1",
                "sublocality_level_1": "address1",
                "street_number": "street_number"
            },
            "SA" : {
                "country": "country",
                "administrative_area_level_1": "state",
                "administrative_area_level_2": "city",
                "locality": "city",
                "premise": "address1",
                "route": "address1",
                "street_number": "street_number"
            }
        }
    }
}
