<svg xmlns="http://www.w3.org/2000/svg" width="33.058" height="14.066" viewBox="0 0 33.058 14.066">
    <path d="M6.271 1.813A2.531 2.531 0 0 0 6.848 0a2.611 2.611 0 0 0-1.676.852 2.388 2.388 0 0 0-.6 1.731 1.973 1.973 0 0 0 1.7-.769m.577.934c-.934-.055-1.731.522-2.17.522s-1.126-.495-1.868-.495A2.756 2.756 0 0 0 .474 4.2c-.989 1.734-.275 4.289.714 5.69.467.687 1.044 1.456 1.786 1.429.714-.027.989-.467 1.841-.467s1.1.467 1.868.44 1.264-.687 1.731-1.4A5.533 5.533 0 0 0 9.183 8.3a2.489 2.489 0 0 1-.3-4.423 2.558 2.558 0 0 0-2.035-1.13" data-name="Path 1881"/>
    <path d="M14.924.797a3.267 3.267 0 0 1 3.434 3.407 3.3 3.3 0 0 1-3.489 3.434h-2.224v3.544h-1.621V.797zm-2.28 5.495h1.841a1.947 1.947 0 0 0 2.2-2.06 1.935 1.935 0 0 0-2.2-2.06h-1.868v4.12zm6.127 2.775c0-1.319 1.017-2.143 2.83-2.253l2.088-.11v-.577c0-.852-.577-1.346-1.511-1.346a1.449 1.449 0 0 0-1.593 1.1h-1.484c.082-1.374 1.264-2.39 3.132-2.39 1.841 0 3.022.962 3.022 2.5v5.22h-1.483V9.973h-.028a2.692 2.692 0 0 1-2.39 1.374 2.327 2.327 0 0 1-2.583-2.281zm4.918-.687v-.6l-1.868.11c-.934.055-1.456.467-1.456 1.126s.549 1.1 1.374 1.1a1.816 1.816 0 0 0 1.95-1.736zm2.94 5.632v-1.264a2.986 2.986 0 0 0 .495.027 1.271 1.271 0 0 0 1.346-1.071c0-.027.137-.467.137-.467L25.86 3.654h1.676l1.923 6.181h.027l1.923-6.181h1.648l-2.833 7.995c-.659 1.841-1.4 2.418-2.967 2.418-.106-.028-.491-.028-.633-.055z" data-name="Path 1882"/>
</svg>
