<svg id="star-shape-favorite" xmlns="http://www.w3.org/2000/svg" width="21.994" height="21" viewBox="0 0 21.994 21">
  <g id="Group_14" data-name="Group 14" transform="translate(0 0)">
    <path id="Path_23" data-name="Path 23" d="M21.3,18.548l-6.915-.584-2.69-6.4A.761.761,0,0,0,11,11.1a.742.742,0,0,0-.7.469l-2.69,6.4-6.915.584a.751.751,0,0,0-.66.52.782.782,0,0,0,.228.812L5.5,24.411,3.93,31.161a.759.759,0,0,0,1.129.825L11,28.395l5.938,3.591a.744.744,0,0,0,.393.114.8.8,0,0,0,.444-.14.738.738,0,0,0,.292-.787l-1.573-6.75,5.241-4.53a.782.782,0,0,0,.228-.812A.746.746,0,0,0,21.3,18.548Zm-6.154,5.025a.759.759,0,0,0-.241.749l1.269,5.444-4.784-2.893A.744.744,0,0,0,11,26.758a.712.712,0,0,0-.393.114L5.821,29.765l1.269-5.444a.759.759,0,0,0-.241-.749L2.623,19.919l5.57-.469a.759.759,0,0,0,.634-.457L11,13.828l2.17,5.152a.73.73,0,0,0,.634.457l5.57.469Z" transform="translate(-0.001 -11.1)" fill="#333"/>
  </g>
</svg>
