<svg xmlns="http://www.w3.org/2000/svg" viewBox="0 0 11 16.2">
    <style type="text/css"> .st0{fill:#727272;} </style>
    <polygon class="st0" points="2.6 13.4 7.7 8.3 2.6 3.3 3.4 2.6 9.1 8.3 3.3 14.1 "/>
</svg>