<svg xmlns="http://www.w3.org/2000/svg" id="_" data-name="!" viewBox="0 0 30.02 30" version="1.1">
    <defs id="defs12">
        <style id="style10">.cls-1{fill:#c30932}</style>
    </defs>
    <title id="title14">error</title>
    <path class="cls-1" d="M16.55 20.68a1 1 0 0 1 .28.69 1 1 0 0 1-.28.7.86.86 0 0 1-.66.29.89.89 0 0 1-.67-.29 1 1 0 0 1-.27-.7 1 1 0 0 1 .27-.69.91.91 0 0 1 .67-.28.87.87 0 0 1 .66.28zm-1.35-1.21V8.85h1.38v10.62h-1.37z" transform="translate(-.92 -.5)" id="path19"/>
</svg>