<svg xmlns="http://www.w3.org/2000/svg" xmlns:xlink="http://www.w3.org/1999/xlink" width="22" height="19" viewBox="0 0 22 19">
    <defs>
        <path id="a" d="M0 .008h11.643v9.24H0z"/>
        <path id="c" d="M.156.196h11.642v9.24H.156z"/>
    </defs>
    <g fill="none" fill-rule="evenodd">
        <g transform="translate(3 4.197)">
            <mask id="b" fill="#fff">
                <use xlink:href="#a"/>
            </mask>
            <path fill="#000" d="M2.809 5.543h8.013a.82.82 0 1 0 0-1.641H2.81l2.409-2.455A.856.856 0 0 0 5.22.257.82.82 0 0 0 4.06.242l-3.82 3.8a.815.815 0 0 0 0 1.162l3.82 3.806a.818.818 0 0 0 1.16-.004.764.764 0 0 0-.003-1.112l-2.41-2.35z" mask="url(#b)"/>
        </g>
        <g transform="translate(7.103 4.197)">
            <mask id="d" fill="#fff">
                <use xlink:href="#c"/>
            </mask>
            <path fill="#000" d="M8.99 3.901H.975a.82.82 0 1 0 0 1.642H8.99L6.58 7.997a.856.856 0 0 0-.003 1.19.82.82 0 0 0 1.16.016l3.82-3.8a.816.816 0 0 0 0-1.162L7.736.435a.816.816 0 0 0-1.16.003.764.764 0 0 0 .003 1.113L8.99 3.9z" mask="url(#d)"/>
        </g>
    </g>
</svg>
