<svg xmlns="http://www.w3.org/2000/svg" xmlns:xlink="http://www.w3.org/1999/xlink" width="42" height="37" viewBox="0 0 42 37">
  <defs>
    <clipPath id="clip-path">
      <rect id="Rectangle_654" data-name="Rectangle 654" width="42" height="37" transform="translate(52 241)" fill="#fff" stroke="#707070" stroke-width="1"/>
    </clipPath>
  </defs>
  <g id="Mask_Group_92" data-name="Mask Group 92" transform="translate(-52 -241)" clip-path="url(#clip-path)">
    <g id="mc_vrt_pos" transform="translate(48 239)">
      <g id="Layer_1" data-name="Layer 1">
        <rect id="Rectangle_651" data-name="Rectangle 651" width="50" height="41.012" fill="none"/>
        <path id="Path_1737" data-name="Path 1737" d="M26.353,96.424V94.38a1.213,1.213,0,0,0-1.281-1.294,1.26,1.26,0,0,0-1.144.579,1.2,1.2,0,0,0-1.076-.579,1.076,1.076,0,0,0-.954.484v-.4H21.19v3.256h.715V94.632a.763.763,0,0,1,.8-.865c.47,0,.708.307.708.858v1.812h.715V94.632a.766.766,0,0,1,.8-.865c.484,0,.715.307.715.858v1.812Zm10.582-3.256H35.771V92.18h-.715v.988h-.647v.647h.661v1.5c0,.756.293,1.206,1.131,1.206a1.662,1.662,0,0,0,.886-.252l-.2-.606a1.308,1.308,0,0,1-.627.184c-.341,0-.47-.218-.47-.545V93.815h1.158Zm6.042-.082a.96.96,0,0,0-.858.477v-.4h-.7v3.256h.708V94.6c0-.538.232-.838.681-.838a1.155,1.155,0,0,1,.443.082l.218-.681a1.516,1.516,0,0,0-.5-.089Zm-9.135.341a2.435,2.435,0,0,0-1.328-.341c-.824,0-1.362.4-1.362,1.042,0,.531.4.858,1.124.96l.341.048c.388.054.572.157.572.341,0,.252-.259.4-.743.4a1.734,1.734,0,0,1-1.083-.341l-.341.552a2.35,2.35,0,0,0,1.41.422c.94,0,1.485-.443,1.485-1.063s-.429-.872-1.138-.974l-.341-.048c-.307-.041-.552-.1-.552-.32s.232-.381.62-.381A2.1,2.1,0,0,1,33.53,94Zm18.975-.341a.96.96,0,0,0-.858.477v-.4h-.7v3.256h.708V94.6c0-.538.232-.838.681-.838a1.155,1.155,0,0,1,.443.082l.218-.681a1.516,1.516,0,0,0-.5-.089Zm-9.128,1.7a1.645,1.645,0,0,0,1.737,1.7A1.7,1.7,0,0,0,46.6,96.1l-.341-.572a1.431,1.431,0,0,1-.851.293,1.046,1.046,0,0,1,0-2.084,1.431,1.431,0,0,1,.851.293l.341-.572a1.7,1.7,0,0,0-1.172-.388,1.645,1.645,0,0,0-1.737,1.7Zm6.635,0V93.168h-.708v.4a1.236,1.236,0,0,0-1.022-.477,1.7,1.7,0,0,0,0,3.406,1.236,1.236,0,0,0,1.022-.477v.4h.708Zm-2.636,0a.978.978,0,1,1,.266.737.984.984,0,0,1-.266-.737Zm-8.549-1.7a1.7,1.7,0,1,0,.048,3.406,1.979,1.979,0,0,0,1.352-.443l-.341-.525a1.55,1.55,0,0,1-.947.341.9.9,0,0,1-.974-.8H40.7V94.8a1.548,1.548,0,0,0-1.546-1.7Zm0,.634a.807.807,0,0,1,.824.79h-1.7a.838.838,0,0,1,.865-.79ZM56.888,94.8V91.86h-.681v1.7a1.236,1.236,0,0,0-1.022-.477,1.7,1.7,0,0,0,0,3.406,1.236,1.236,0,0,0,1.022-.477v.4h.681Zm1.182,1.155a.328.328,0,0,1,.307.194.317.317,0,0,1,0,.252.326.326,0,0,1-.177.17.32.32,0,0,1-.129.027.341.341,0,0,1-.307-.2.32.32,0,0,1,0-.252.331.331,0,0,1,.317-.194Zm0,.576a.242.242,0,0,0,.1-.02.255.255,0,0,0,.078-.055.245.245,0,0,0-.078-.4.245.245,0,0,0-.1-.02.255.255,0,0,0-.1.02.249.249,0,0,0-.082.054.247.247,0,0,0,.191.416Zm.02-.405a.136.136,0,0,1,.089.027.085.085,0,0,1,.031.072.082.082,0,0,1-.024.061.119.119,0,0,1-.072.031l.1.112h-.078l-.092-.112h-.031v.112h-.065v-.3Zm-.075.058v.082h.075a.071.071,0,0,0,.041,0,246.343,246.343,0,0,1,0-.061.072.072,0,0,0-.041,0ZM54.269,94.8a.978.978,0,1,1,.266.737A.984.984,0,0,1,54.269,94.8Zm-23.92,0V93.168H29.64v.4a1.236,1.236,0,0,0-1.022-.477,1.7,1.7,0,0,0,0,3.406,1.236,1.236,0,0,0,1.022-.477v.4h.708Zm-2.636,0a.417.417,0,1,1-.007,0Z" transform="translate(-13.973 -60.573)" fill="#231f20"/>
        <g id="_Group_" data-name="&lt;Group&gt;" transform="translate(5.162 5.16)">
          <rect id="Rectangle_652" data-name="Rectangle 652" width="10.729" height="19.281" transform="translate(14.474 2.622)" fill="#ff5f00"/>
          <path id="_Path_" data-name="&lt;Path&gt;" d="M30.31,27.418a12.241,12.241,0,0,1,4.683-9.642,12.262,12.262,0,1,0,0,19.281A12.241,12.241,0,0,1,30.31,27.418Z" transform="translate(-15.155 -15.153)" fill="#eb001b"/>
          <path id="Path_1738" data-name="Path 1738" d="M93.24,27.415A12.262,12.262,0,0,1,73.4,37.054a12.262,12.262,0,0,0,0-19.281,12.262,12.262,0,0,1,19.84,9.639Z" transform="translate(-53.562 -15.151)" fill="#f79e1b"/>
          <path id="Path_1739" data-name="Path 1739" d="M127.735,72.537v-.4h.16V72.06h-.405v.082h.174v.4Zm.787,0V72.06H128.4l-.143.341-.143-.341H128v.477h.089v-.358l.133.31h.092l.133-.31v.361Z" transform="translate(-89.229 -52.677)" fill="#f79e1b"/>
        </g>
      </g>
    </g>
  </g>
</svg>
