{
  "name": "Brand Page Text Container",
  "group": "commerce_layouts",
  "attribute_definition_groups": [],
  "region_definitions": [
    {
      "id":"brandPageTextContainer",
      "name":"Brand Page Text Container",
      "component_type_exclusions": []
    }
  ]
}
