{
  "name": "Carousel",
  "group": "commerce_layouts",
  "attribute_definition_groups": [
    {
      "id": "heading",
      "attribute_definitions": [
        {
          "id": "jsonConfig",
          "name": "Config",
          "type": "custom",
          "required": false
        },
        {
          "id": "header",
          "name": "Header",
          "type": "string",
          "required": false
        }
      ]
    }
  ],
  "region_definitions": [
    {
      "id":"slides",
      "name":"Slides",
      "component_type_exclusions": [
        { "type_id": "commerce_layouts.carousel" },
        { "type_id": "commerce_layouts.mobileGrid2r3c" },
        { "type_id": "commerce_layouts.mobileGrid3r2c" },
        { "type_id": "commerce_layouts.einsteinCarousel" },
        { "type_id": "commerce_layouts.einsteinCarouselCategory" },
        { "type_id": "commerce_layouts.einsteinCarouselProduct" },
        { "type_id": "commerce_layouts.mobileGridLookBook" }
      ]
    }
  ]
}
