<svg xmlns="http://www.w3.org/2000/svg" xmlns:xlink="http://www.w3.org/1999/xlink" width="24" height="24" viewBox="0 0 24 24">
    <defs>
        <path id="prefix__a" d="M16.554 5.143H11.57c.71 0 1.316-.251 1.819-.753.502-.503.753-1.109.753-1.819s-.251-1.315-.753-1.818C12.887.251 12.28 0 11.57 0s-1.315.251-1.818.753C9.251 1.256 9 1.862 9 2.571c0-.71-.251-1.315-.753-1.818C7.744.251 7.138 0 6.429 0c-.71 0-1.316.251-1.819.753-.502.503-.753 1.109-.753 1.818 0 .71.251 1.316.753 1.819.503.502 1.109.753 1.819.753H1.446c-.401 0-.743.14-1.024.422C.14 5.846 0 6.187 0 6.589v2.25c0 .402.14.744.422 1.025.281.281.623.422 1.024.422h-.16v6.268c0 .401.14.743.422 1.024.28.281.622.422 1.024.422h12.536c.402 0 .743-.14 1.024-.422.282-.281.422-.623.422-1.024v-6.268h-.16c.401 0 .743-.14 1.024-.422.281-.281.422-.623.422-1.025V6.59c0-.402-.14-.743-.422-1.024-.281-.282-.623-.422-1.024-.422zM6.429 3.696c-.308 0-.573-.11-.794-.331-.22-.221-.331-.486-.331-.794 0-.308.11-.572.331-.793.221-.221.486-.332.794-.332.308 0 .572.11.793.332.221.22.332.485.332.793v1.125H6.429zm1.848 12.858H2.732v-6.268h5.545v6.268zm0-7.715h-6.83V6.59h6.83v2.25zm2.17-6.268c0-.308.11-.572.33-.793.222-.221.486-.332.794-.332.308 0 .573.11.794.332.22.22.331.485.331.793 0 .308-.11.573-.331.794-.221.22-.486.331-.794.331h-1.125V2.571zm4.82 13.983H9.724v-6.268h5.545v6.268zm1.287-7.715h-6.83V6.59h6.83v2.25z"/>
    </defs>
    <g fill="none" fill-rule="evenodd" transform="translate(3 3)">
        <mask id="prefix__b" fill="#fff">
            <use xlink:href="#prefix__a"/>
        </mask>
        <use fill="#000" fill-rule="nonzero" xlink:href="#prefix__a"/>
        <g fill="#4BB543" mask="url(#prefix__b)">
            <path d="M0 0H24V24H0z" transform="translate(-3 -3)"/>
        </g>
    </g>
</svg>
