{
    "name": "infoBlock",
    "group": "commerce_assets",
    "attribute_definition_groups": [
      {
        "id": "body",
        "attribute_definitions": [
          {
            "id": "image",
            "name": "Image",
            "type": "image",
            "required": true
          },
          {
            "id": "alt",
            "name": "Alt Text",
            "description": "The image alt text shown by the component.",
            "type": "string",
            "required": true
          },
          {
            "id": "title",
            "name": "Text over text block",
            "type": "string",
            "required": false
          },
          {
            "id": "description",
            "name": "Text over text block",
            "type": "markup",
            "required": false
          },
          {
            "id": "readMore",
            "name": "Show 'read more'",
            "type": "boolean",
            "required": false
          }
        ]
      }
    ],
    "region_definitions": []
}
