{
    "name": "mainBanerItem",
    "group": "commerce_assets",
    "attribute_definition_groups": [
      {
        "id": "body",
        "attribute_definitions": [
          {
            "id": "image",
            "name": "Background image",
            "type": "image",
            "required": false
          },
          {
            "id": "imageMobile",
            "name": "Background image (Mobile)",
            "type": "image",
            "required": false
          },
          {
            "id": "fullWight",
            "name": "fullWight",
            "type": "boolean",
            "required": false
          },
          {
            "id": "descriptionBelow",
            "name": "Description below image",
            "type": "boolean",
            "required": false
          },
          {
            "id": "alt",
            "name": "Alt Text",
            "description": "Alt text for background image",
            "type": "string",
            "required": false
          },
          {
            "id": "title",
            "name": "Main title for banner",
            "type": "string",
            "required": false
          },
          {
            "id": "buttonText1",
            "name": "Button text 1",
            "type": "string",
            "required": false
          },
          {
            "id": "buttonLink1",
            "name": "Button URL 1",
            "type": "url",
            "required": false
          },
          {
            "id": "buttonText2",
            "name": "Button text 2",
            "type": "string",
            "required": false
          },
          {
            "id": "buttonLink2",
            "name": "Button URL 2",
            "type": "url",
            "required": false
          },
          {
            "id": "useVideo",
            "name": "Use video as background",
            "type": "boolean",
            "required": false
          },
          {
            "id": "videoUrl",
            "name": "Link for video",
            "type": "url",
            "required": false
          }
        ]
      }
    ],
    "region_definitions": []
}
