{
    "name": "Accordion",
    "description": "This is collapse for static pages.",
    "group": "commerce_assets",
    "attribute_definition_groups": [
        {
            "id": "collapseConfiguration",
            "name": "Collapse Configuration",
            "description": "Title and Content to be displayed on the page.",
            "attribute_definitions": [
                {
                    "id": "title",
                    "name": "Title",
                    "description": "The collapse title shown by the component.",
                    "type": "string",
                    "required": true
                },
                {
                    "id": "description",
                    "name": "Content",
                    "description": "The collapse content shown by the component.",
                    "type": "markup",
                    "required": true
                }
            ]
        }
    ],
    "region_definitions": []
}
