{
    "name": "Navbar Item",
    "description": "This is navbar items of navbar.",
    "group": "commerce_assets",
    "attribute_definition_groups": [
        {
            "id": "navItemProductConfiguration",
            "name": "Navbar Product Configuration",
            "description": "Navbar & tab Configuration for Product on to shown.",
            "attribute_definitions": [
                {
                    "id": "image",
                    "name": "Image",
                    "description": "Select the image to be displayed on the navbar",
                    "type": "image",
                    "required": false
                },
                {
                    "id": "imageAlt",
                    "name": "Alt Text",
                    "description": "Enter the alt text for image",
                    "type": "string",
                    "required": false
                },
                {
                    "id": "title",
                    "name": "Title",
                    "description": "Enter the header to be displayed on the image",
                    "type": "string",
                    "required": false
                },
                {
                    "id": "description",
                    "name": "Description",
                    "description": "Enter the description to be displayed on the image",
                    "type": "string",
                    "required": false
                },
                {
                    "id": "link",
                    "name": "Link",
                    "description": "Enter the link title to be displayed on the image",
                    "type": "string",
                    "required": false
                },
                {
                    "id": "URL",
                    "name": "Link-URL",
                    "description": "Enter the url for when the link is clicked, to redirected page",
                    "type": "string",
                    "required": false
                }
            ]
        },
        {
            "id": "navItemImageConfiguration",
            "name": "Navbar Image Configuration",
            "description": "Navbar & tab Configuration.",
            "attribute_definitions": [
                {
                    "id": "productConfig",
                    "name": "Product List",
                    "description": "Enter the product list and product config for to shown of size to be displayed on the nav tab",
                    "type": "custom",
                    "required": false
                }
            ]
        }
    ],
    "region_definitions": []
}
