<svg xmlns="http://www.w3.org/2000/svg" width="12" height="20" viewBox="0 0 12 20">
    <path d="M25.766 22L16.398 12.859 17.174 12.1 27.33 22 17.174 31.9 16.398 31.141z" transform="translate(-15.932 -12)"/>
</svg>
