<svg xmlns="http://www.w3.org/2000/svg" width="10" height="6" viewBox="0 0 10 6">
    <path fill="#000000" fill-rule="evenodd" d="M10 9.243L14.286 5 15 5.707 10 10.657 5 5.707 5.714 5z" transform="translate(-5 -5)"/>
</svg>
