<?xml version="1.0" encoding="UTF-8"?>
<svg width="6px" height="8px" viewBox="0 0 6 8" version="1.1" xmlns="http://www.w3.org/2000/svg" xmlns:xlink="http://www.w3.org/1999/xlink">
    <!-- Generator: sketchtool 63.1 (101010) - https://sketch.com -->
    <title>D2C1F8C5-A4D9-4783-9F90-66AE838DEB2F</title>
    <desc>Created with sketchtool.</desc>
    <g id="MegaMenu" stroke="none" stroke-width="1" fill="none" fill-rule="evenodd">
        <g id="EN-MegaMenu-L2" transform="translate(-25.000000, -26.000000)" fill="#000000">
            <g id="iconography/system-icons/arrow-down-sm" transform="translate(28.000000, 30.000000) rotate(-270.000000) translate(-28.000000, -30.000000) translate(13.000000, 15.000000)">
                <g id="icon-arrow-down-sm" transform="translate(0.600000, 0.600000)">
                    <polygon points="14.4 15.3941125 17.8285714 12 18.4 12.5656854 14.4 16.5254834 10.4 12.5656854 10.9714286 12"></polygon>
                </g>
            </g>
        </g>
    </g>
</svg>