<?xml version="1.0" encoding="UTF-8"?>
<svg width="20px" height="20px" viewBox="0 0 20 20" version="1.1" xmlns="http://www.w3.org/2000/svg" xmlns:xlink="http://www.w3.org/1999/xlink">
    <!-- Generator: sketchtool 51.2 (57519) - http://www.bohemiancoding.com/sketch -->
    <title>A08E1CB0-D3A9-4D63-8201-311BA102C2C3-1135-000044E4FF382B1A</title>
    <desc>Created with sketchtool.</desc>
    <defs></defs>
    <g id="heart-usage" class="sprite-symbol-usage">
		<svg viewBox="0 0 20 20" id="heart">
			<path d="M13.138 4.963a2.74 2.74 0 0 1 1.99.828 3.227 3.227 0 0 1 0 4.545l-5.121 5.277-5.074-5.267a3.227 3.227 0 0 1 0-4.555 2.74 2.74 0 0 1 1.933-.828A3.369 3.369 0 0 1 9.3 6.051l.706.751.724-.75a3.369 3.369 0 0 1 2.407-1.089zm0-.963a4.327 4.327 0 0 0-3.131 1.396A4.327 4.327 0 0 0 6.866 4a3.718 3.718 0 0 0-2.668 1.107 4.207 4.207 0 0 0 0 5.894L9.997 17l5.799-6a4.207 4.207 0 0 0 0-5.893A3.718 3.718 0 0 0 13.138 4z"></path>
		</svg>
	</g>
</svg>