{
    "production-eu01-chalhoub.demandware.net": "ae.loccitane.com",
    "development-eu01-chalhoub.demandware.net": "ae.loccitane.com",
    "staging-eu01-chalhoub.demandware.net": "ae.loccitane.com"
}
