<svg xmlns="http://www.w3.org/2000/svg" width="188" height="36" viewBox="0 0 188 36">
    <path fill="#0C2340" fill-rule="evenodd" d="M85.18 36c9.946 0 18.037-8.075 18.037-18S95.126 0 85.18 0C75.233 0 67.14 8.075 67.14 18s8.092 18 18.039 18zm0-33.5c8.564 0 15.532 6.953 15.532 15.5S93.744 33.5 85.18 33.5c-8.566 0-15.533-6.953-15.533-15.5S76.614 2.5 85.18 2.5zM73.605 18.516h-.45v5.5h5.58c-.503-.382-.796-.979-.79-1.61-.001-.616.248-1.206.689-1.637.441-.431 1.038-.666 1.655-.653.629-.046 1.248.178 1.701.615.453.437.699 1.046.674 1.675.032.744-.454 1.41-1.172 1.61.776.375 1.27 1.16 1.272 2.02 0 1.36-.942 2.09-2.946 2.09h-.651v1.89h3.497c1.323 0 2.044-.27 2.515-1.38.511 1.11 1.193 1.38 2.516 1.38h3.497v-1.85h-.651c-1.944 0-2.946-.73-2.946-2.09-.014-.875.483-1.679 1.272-2.06-.718-.2-1.204-.866-1.172-1.61-.025-.629.22-1.238.674-1.675.453-.437 1.072-.66 1.7-.615.618-.013 1.215.222 1.656.653.441.43.69 1.021.69 1.637.005.631-.288 1.228-.792 1.61h5.582v-5.5h-.451c-.958 0-1.904.445-2.255 1.36-.511-1.13-1.243-1.36-2.515-1.36h-4.29c-1.322 0-2.044.25-2.515 1.36-.47-1.11-1.192-1.36-2.515-1.36h-4.289c-1.273 0-2.024.23-2.505 1.36-.352-.919-1.276-1.36-2.265-1.36zM51.197 12l3.927 5.542L59.073 12h4.06l-6.362 8.119V25h-3.326v-4.881L47.1 12h4.098zm125.96 0v5.01h7.663V12H188v13h-3.18v-5.58h-7.663V25h-3.187V12h3.187zm-50.887 0v7.407c.038.962.14 1.765.96 2.37.809.6 1.92.67 2.414.677h.206c.223 0 1.42 0 2.261-.497.564-.325.84-.768.961-1 .136-.286.17-.502.203-1.103V12h3.012v7.318c-.016 1.176-.016 2.155-.615 3.17-.102.161-.343.536-.72.892-1.302 1.21-3.457 1.62-5.12 1.62-.39 0-1.316-.017-2.36-.251-2.416-.55-3.443-1.85-3.873-2.885-.256-.622-.323-1.193-.34-2.563V12h3.011zm-9.892 0c.946.017 1.959.035 2.815.496.586.333 1.423 1.049 1.423 2.687 0 .571-.108 1.862-1.512 2.543-.125.054-.283.13-.57.222.57.146.781.218 1.068.366 1.565.81 1.653 2.34 1.653 2.948 0 .497-.034 2.008-1.262 2.966-.945.754-2.028.772-3.132.772h-8.633V12h8.15zm-74.887 0c1.183.017 1.708.07 2.271.235 1.765.497 2.733 1.938 2.733 3.649 0 .33-.018.976-.367 1.71-.621 1.33-1.802 1.735-3.202 1.973L47.1 25h-4.056l-3.645-5.231h-3.915V25h-3.415V12zm122.052 0c.74 0 3.314.067 5.397 1.329 1.136.71 1.757 1.556 2.005 1.954.095.175.192.346.265.521l-3.653.413c-.208-.292-.585-.829-1.342-1.296-.44-.259-1.346-.675-2.672-.675-.34 0-1.191.018-2.081.364-1.743.657-2.67 2.177-2.67 3.89 0 .846.283 1.78.834 2.488.115.155.399.467.831.78.513.378 1.536.983 3.18.983 1.952 0 2.99-.743 3.522-1.313.228-.224.379-.45.682-.968l3.52-.036c-.187.624-.302.85-.472 1.158-.21.38-.568.937-1.383 1.592-1.098.882-2.857 1.816-6.153 1.816-.757 0-3.404-.017-5.487-1.435-2.426-1.642-2.539-4.2-2.539-5.1 0-1.244.323-2.54 1.08-3.58.266-.364.511-.62.85-.917.458-.397.683-.534.95-.689.868-.537 2.668-1.279 5.336-1.279zm-14.824 0c1.186.017 1.709.072 2.27.236 1.764.497 2.737 1.939 2.737 3.647 0 .334-.019.98-.371 1.714-.62 1.328-1.8 1.731-3.2 1.97l4.17 5.433h-4.052l-3.648-5.229h-3.916V25h-3.416V12h9.426zM12.827 12v2.384H8.048V25h-3.25V14.384H0V12h12.827zm8.72.01c1.628-.068 3.59.192 5.055.865.203.104.576.275 1.037.59.37.26.74.57 1.037.916.556.606 1.387 1.952 1.387 3.995 0 .244-.017.882-.145 1.559-.187.81-.686 2.577-2.665 3.82-.912.554-2.577 1.245-5.167 1.245-3.894 0-5.943-1.47-6.89-2.768-.446-.587-1.166-1.865-1.166-3.733 0-2.821 1.462-4.291 2.425-4.984 1.425-1.018 3.334-1.452 5.091-1.504zm.606 2.194l-.254.004c-.297 0-1.075.069-1.888.4-2.427 1-2.613 3.164-2.613 3.978 0 .239.02 1.037.354 1.763.091.226.203.448.5.83.09.105.332.433.664.692.52.415 1.519.932 3.131.932.298 0 1.075-.015 1.89-.291 2.572-.867 2.796-3.234 2.796-3.997 0-.517-.092-1.853-1.17-2.974-.922-.934-2.313-1.385-3.664-1.333zm94.298 5.16l-5.109.019v3.334h4.735c.357 0 .731 0 1.085-.128.43-.146.964-.572.964-1.64 0-.148-.034-.738-.375-1.141-.356-.408-.801-.425-1.3-.443zM82.664 6h-3.497v1.89h.651c2.004 0 2.946.73 2.946 2.09-.002.86-.496 1.645-1.272 2.02.718.2 1.204.867 1.172 1.61.025.629-.22 1.238-.674 1.675-.453.437-1.072.661-1.7.615-.618.013-1.215-.222-1.656-.653-.441-.43-.69-1.02-.69-1.637-.005-.631.288-1.228.792-1.61h-5.582v5.5h.451c.994 0 1.913-.441 2.265-1.36.48 1.13 1.232 1.36 2.505 1.36h4.29c1.322 0 2.043-.25 2.514-1.36.471 1.11 1.193 1.36 2.516 1.36h4.289c1.272 0 2.004-.23 2.515-1.36.351.915 1.27 1.36 2.255 1.36h.45V12h-5.581c.504.382.797.979.792 1.61 0 .616-.249 1.206-.69 1.637-.441.431-1.038.666-1.655.653-.63.046-1.248-.178-1.701-.615-.454-.437-.699-1.046-.674-1.675-.032-.743.454-1.41 1.172-1.61-.79-.381-1.286-1.185-1.272-2.06 0-1.36 1.002-2.09 2.946-2.09h.651V6h-3.497c-1.323 0-2.005.27-2.516 1.38C84.71 6.27 83.987 6 82.664 6zm-41.791 8.28h-5.39v3.188h5.553c.158-.002.552-.011.785-.056.41-.11 1.204-.421 1.204-1.49 0-.13-.022-.607-.272-.978-.427-.626-1.185-.643-1.88-.664zm107.225.001h-5.389v3.187h5.556c.159-.002.555-.01.787-.054.403-.11 1.2-.425 1.2-1.491 0-.13-.018-.609-.27-.977-.428-.625-1.183-.644-1.884-.665zm-32.003-.035h-4.753V17.1h4.503c.606 0 1.213 0 1.55-.624.175-.297.195-.618.197-.776v-.051c0-.114 0-.369-.107-.646-.302-.827-1.193-.756-1.39-.756z"/>
</svg>
