{
    "name": "Link",
    "description": "A custom link",
    "group": "commerce_assets",
    "attribute_definition_groups": [
        {
            "id": "linkCustom",
            "name": "",
            "description": "",
            "attribute_definitions": [
                {
                    "id": "link",
                    "name": "Link",
                    "description": "Select a link that will be displayed in the list.",
                    "type": "url",
                    "required": true
                },
                {
                    "id": "text",
                    "name": "Text",
                    "description": "Text of the link",
                    "type": "string",
                    "required": true
                },
                {
                    "id": "type",
                    "name": "Type",
                    "description": "The layout type of the link. Default value is \"primary\".",
                    "type": "enum",
                    "values": [
                        "primary",
                        "secondary"
                    ],
                    "default_value": "primary",
                    "required": false
                }
            ]
        }
    ],
    "region_definitions": []
}
