{
    "name": "Main Carousel Item",
    "description": "This is ian tile for main carousel on the homepage.",
    "group": "commerce_assets",
    "attribute_definition_groups": [
        {
            "id": "backgroundConfiguration",
            "name": "Background Configuration",
            "description": "Select the image and enter a title to be displayed in the background.",
            "attribute_definitions": [
                {
                    "id": "image",
                    "name": "Image",
                    "description": "Select an image to be displayed on the background",
                    "type": "image",
                    "required": true
                },
                {
                    "id": "title",
                    "name": "Title",
                    "description": "Enter a title to be displayed on the image",
                    "type": "string",
                    "required": false
                },
                {
                    "id": "imageAltText",
                    "name": "Alt Text",
                    "description": "Enter a alt text for image",
                    "type": "string",
                    "required": false
                },
                {
                    "id": "link",
                    "name": "Link",
                    "description": "Enter a alternative link (URL) for image",
                    "type": "url",
                    "required": false
                },
                {
                    "id": "alternativeLink",
                    "name": "Alternative Link",
                    "description": "Enter a alternative link (pages which are not created from PD) for image",
                    "type": "string",
                    "required": false
                },
                {
                    "id": "category",
                    "name": "Category",
                    "description": "Showing page category link, when to click on the button or image",
                    "type": "category",
                    "required": true
                }
            ]
        },
        {
            "id": "mobileConfiguration",
            "name": "Mobile Configuration",
            "description": "Configure cta and image to be displayed on the mobile screem.",
            "attribute_definitions": [
                {
                    "id": "mobileImage",
                    "name": "Mobiel Image",
                    "type": "image",
                    "required": true
                },
                {
                    "id": "header",
                    "name": "Header",
                    "description": "Enter the header to be displayed on the image",
                    "type": "string",
                    "required": false
                },
                {
                    "id": "buttonName",
                    "name": "Button Name",
                    "description": "Enter the button name to be displayed on the image",
                    "type": "string",
                    "required": false
                }
            ]
        }
    ],
    "region_definitions": []
}
