{
    "name": "Mini Video Section",
    "description": "This is video section on the how to page.",
    "group": "commerce_assets",
    "attribute_definition_groups": [
        {
            "id": "backgroundConfiguration",
            "name": "Background Configuration",
            "description": "Select the image and enter a title to be displayed in the background.",
            "attribute_definitions": [
                {
                    "id": "image",
                    "name": "Image",
                    "description": "Select an image to be displayed on the background",
                    "type": "image",
                    "required": true
                },
                {
                    "id": "title",
                    "name": "Title",
                    "description": "Enter a title to be displayed on the background",
                    "type": "string",
                    "required": false
                },
                {
                    "id": "pageLink",
                    "name": "Page Link",
                    "description": "Enter a url to be displayed on click",
                    "type": "string",
                    "required": true
                }
            ]
        }
    ],
    "region_definitions": []
}
