{
    "name": "Video Section",
    "description": "This is video section on the homepage.",
    "group": "commerce_assets",
    "attribute_definition_groups": [
        {
            "id": "backgroundConfiguration",
            "name": "Background Configuration",
            "description": "Select the image and enter a title to be displayed in the background.",
            "attribute_definitions": [
                {
                    "id": "image",
                    "name": "Image",
                    "description": "Select an image to be displayed on the background",
                    "type": "image",
                    "required": true
                },
                {
                    "id": "title",
                    "name": "Title",
                    "description": "Enter a title to be displayed on the background",
                    "type": "string",
                    "required": false
                }
            ]
        },
        {
            "id": "frameConfiguration",
            "name": "Frame Configuration",
            "description": "Frame configuration to be displayed on the form.",
            "attribute_definitions": [
                {
                    "id": "frame",
                    "name": "Frame",
                    "description": "The frame shown by the component.",
                    "type": "string",
                    "required": true
                },
                {
                    "id": "frameBorder",
                    "name": "Frame Border",
                    "description": "The submit form subtitle shown by the component.",
                    "type": "enum",
                    "values": [
                        0,
                        1,
                        2
                    ],
                    "required": false,
                    "default_value": 0
                },
                {
                    "id": "autoplay",
                    "name": "Allow autoplay",
                    "description": "Allow autoplay",
                    "type": "boolean",
                    "required": false,
                    "default_value": false
                }
            ]
        }
    ],
    "region_definitions": []
}
