{
    "name": "Link",
    "description": "A custom link",
    "group": "commerce_assets",
    "attribute_definition_groups": [
        {
            "id": "linkCustom",
            "name": "",
            "description": "",
            "attribute_definitions": [
                {
                    "id": "link",
                    "name": "Link",
                    "description": "Select a link that will be displayed in the list.",
                    "type": "url",
                    "required": true
                },
                {
                    "id": "text",
                    "name": "Text",
                    "description": "Text of the link",
                    "type": "string",
                    "required": true
                },
                {
                    "id": "textColor",
                    "name": "Text Color",
                    "description": "Enter a hex color for link text. Default value is \"black\".",
                    "type": "string",
                    "default_value": "black",
                    "required": false
                },
                {
                    "id": "bgColor",
                    "name": "Background Color",
                    "description": "Enter a hex color to be displayed as background color of link. Default value is \"transparent\".",
                    "type": "string",
                    "default_value": "transparent",
                    "required": false
                },
                {
                    "id": "thumbnail",
                    "name": "Thumbnail",
                    "description": "Select a thumbnail to be displayed",
                    "type": "image",
                    "required": false
                },
                {
                    "id": "visibility",
                    "name": "Visibility",
                    "description": "Visibility of links component with respect to screen size. Default value is \"visible\".",
                    "type": "enum",
                    "values": [
                        "visible",
                        "visible-up-sm",
                        "visible-up-md",
                        "visible-up-lg",
                        "visible-up-xl",
                        "visible-down-xs",
                        "visible-down-sm",
                        "visible-down-md",
                        "visible-down-lg",
                        "hidden"
                    ],
                    "default_value": "visible",
                    "required": false
                }
            ]
        }
    ],
    "region_definitions": []
}
