{
    "name": "Product Tile",
    "description": "This is category tile for trending static on the homepage.",
    "group": "commerce_assets",
    "attribute_definition_groups": [
        {
            "id": "productConfiguration",
            "name": "Product Configuration",
            "description": "Select product to be displayed on the component.",
            "attribute_definitions": [
                {
                    "id": "product",
                    "name": "Product",
                    "description": "Select an product to be displayed",
                    "type": "product",
                    "required": true
                }
            ]
        },
        {
            "id": "productDisplayConfiguration",
            "name": "Product Display Configuration",
            "description": "Config display of product to be displayed on the component.",
            "attribute_definitions": [
                {
                    "id": "showAddToBagButton",
                    "name": "Show Add To Bag Button",
                    "description": "Default value is false",
                    "type": "boolean",
                    "required": false
                },
                {
                    "id": "showShopNowButton",
                    "name": "Show Shop Now Button",
                    "description": "Default value is false",
                    "type": "boolean",
                    "required": false
                },
                {
                    "id": "showQuickView",
                    "name": "Show Quick View Part",
                    "description": "Default value is false",
                    "type": "boolean",
                    "required": false
                },
                {
                    "id": "showRatings",
                    "name": "Show Ratings Part",
                    "description": "Default value is false",
                    "type": "boolean",
                    "required": false
                },
                {
                    "id": "showBadges",
                    "name": "Show Badges Part",
                    "description": "Default value is false",
                    "type": "boolean",
                    "required": false
                },
                {
                    "id": "showSwatches",
                    "name": "Show Swatches Part",
                    "description": "Default value is false",
                    "type": "boolean",
                    "required": false
                }
            ]
        }
    ],
    "region_definitions": []
}
