{
    "name": "CLPSlot3",
    "description": "This is slot component",
    "group": "commerce_assets",
    "attribute_definition_groups": [
        {
            "id": "slotConfig",
            "name": "Slot Configuration",
            "attribute_definitions": [
                {
                    "id": "categoryId",
                    "name": "Category ID",
                    "description": "The ID of the category to be displayed.",
                    "type": "string",
                    "required": false
                }
            ]
        }
    ],
    "region_definitions": []
}
