{
    "name": "Product Presentation",
    "group": "commerce_assets",
    "attribute_definition_groups": [
        {
            "id": "productPresentationSpec",
            "name": "Product Presentation Specifications",
            "description": "Specification of the product to be displayed in the product presentation.",
            "attribute_definitions": [
                {
                    "id": "image",
                    "name": "Image",
                    "type": "image",
                    "required": true
                },
                {
                    "id": "alt",
                    "name": "Alt Text",
                    "description": "The image alt text shown by the component.",
                    "type": "string",
                    "required": false
                },
                {
                    "id": "name",
                    "name": "product name",
                    "type": "string",
                    "required": false
                },
                {
                    "id": "category",
                    "name": "product category",
                    "type": "string",
                    "required": false
                },
                {
                    "id": "description",
                    "name": "Text inside text block",
                    "type": "markup",
                    "required": false
                },
                {
                    "id": "buttonText",
                    "name": "Button text",
                    "type": "string",
                    "required": true
                },
                {
                    "id": "buttonLink",
                    "name": "Button URL",
                    "type": "url",
                    "required": true
                }
            ]
        }
    ],
    "region_definitions": []
}
