{
    "hooks": [
        {
            "name": "app.payment.processor.checkoutcom_credit",
            "script": "./cartridge/scripts/hooks/payment/processor/checkoutcom_credit"
        },
        {
            "name": "app.payment.form.processor.checkoutcom_credit",
            "script": "./cartridge/scripts/hooks/payment/processor/checkoutcom_credit_form_processor"
        }
    ]
}
